Custom Live Plotting for SLiM • slimr
…
chromosome_sim_test <- slimr_script_render(chromosome_sim,
                                           template = list(N = 100))

## Warning in replace_double_dots(slimr_script, .x, slimr_template_attr = slimr_template_attr, : Warning: A templated variable was not specified in the template and has been replaced by its default value.

output_test <- slim_run(chromosome_sim_test)

## 
## 
## Simulation finished with exit status: 0

output_test$output_data

## # A tibble: 198 x 4
##    generation name    expression    data                                        
##         <int> <chr>   <chr>         <chr>                                       
##  1          5 fix_mut sim.outputFu~ "#OUT: 5 A\nVersion: 3\nPopulations:\np1 10~
##  2         10 fix_mut sim.outputFu~ "#OUT: 10 A\nVersion: 3\nPopulations:\np1 1~
##  3         15 fix_mut sim.outputFu~ "#OUT: 15 A\nVersion: 3\nPopulations:\np1 1~
##  4         20 fix_mut sim.outputFu~ "#OUT: 20 A\nVersion: 3\nPopulations:\np1 1~
##  5         25 fix_mut sim.outputFu~ "#OUT: 25 A\nVersion: 3\nPopulations:\np1 1~
##  6         30 fix_mut sim.outputFu~ "#OUT: 30 A\nVersion: 3\nPopulations:\np1 1~
##  7         35 fix_mut sim.outputFu~ "#OUT: 35 A\nVersion: 3\nPopulations:\np1 1~
##  8         40 fix_mut sim.outputFu~ "#OUT: 40 A\nVersion: 3\nPopulations:\np1 1~
##  9         45 fix_mut sim.outputFu~ "#OUT: 45 A\nVersion: 3\nPopulations:\np1 1~
## 10         50 fix_mut sim.outputFu~ "#OUT: 50 A\nVersion: 3\nPopulations:\np1 1~
## # ... with 188 more rows

So now we can write a function that takes the outputted tibble and make the desired plot. The first thing we need to do is extract the relevant information from the full output. In this case we only need the information on mutations: their position, and their prevalance in the population. We can use the handy slimr function slim_outputFull_extract(type = "mutation") for this. This function extracts various pieces of the SLiM outputFull() function, which contains all information about a population in a SLiM simulation. In this case, we only need the information for the latest generation. Let’s test it:

mut_dat <- slim_outputFull_extract(output_test$output_data[nrow(output_test$output_data), ],
                                   "mutations")
mut_dat

## # A tibble: 68 x 11
##    generation    id unique_id mut_type chrome_pos selection dominance subpop
##         <int> <int>     <int> <chr>         <int>     <dbl>     <dbl> <chr> 
##  1        990    29      1169 m1           144771         0       0.5 p1    
##  2        990     1      1201 m1           131667         0       0.5 p1    
##  3        990     0      1691 m1           120338         0       0.5 p1    
##  4        990    24      2472 m1            94405         0       0.5 p1    
##  5        990    25      2735 m1            96431         0       0.5 p1    
##  6        990    26      3081 m1           107929         0       0.5 p1    
##  7        990    28      3831 m1           136347         0       0.5 p1    
##  8        990    27      3872 m1           128901         0       0.5 p1    
##  9        990     3      4334 m1           228378         0       0.5 p1    
## 10        990     4      4373 m1             7937         0       0.5 p1    
## # ... with 58 more rows, and 3 more variables: first_gen <int>,
## #   prevalence <int>, nucleotide <chr>
…
