Custom Live Plotting for SLiM • slimr
…
## Warning: Warning: A templated variable was not specified in the template and has been replaced by its default value.

output_test <- slim_run(chromosome_sim_test)

## 
## 
## Simulation finished with exit status: 0
## 
## Success!

output_test$output_data

## # A tibble: 200 × 5
##    generation name    expression       type        data                         
##         <int> <chr>   <chr>            <chr>       <chr>                        
##  1          5 fix_mut sim.outputFull() slim_output "#OUT: 5 5 A\nVersion: 3\nPo…
##  2         10 fix_mut sim.outputFull() slim_output "#OUT: 10 10 A\nVersion: 3\n…
##  3         15 fix_mut sim.outputFull() slim_output "#OUT: 15 15 A\nVersion: 3\n…
##  4         20 fix_mut sim.outputFull() slim_output "#OUT: 20 20 A\nVersion: 3\n…
##  5         25 fix_mut sim.outputFull() slim_output "#OUT: 25 25 A\nVersion: 3\n…
##  6         30 fix_mut sim.outputFull() slim_output "#OUT: 30 30 A\nVersion: 3\n…
##  7         35 fix_mut sim.outputFull() slim_output "#OUT: 35 35 A\nVersion: 3\n…
##  8         40 fix_mut sim.outputFull() slim_output "#OUT: 40 40 A\nVersion: 3\n…
##  9         45 fix_mut sim.outputFull() slim_output "#OUT: 45 45 A\nVersion: 3\n…
## 10         50 fix_mut sim.outputFull() slim_output "#OUT: 50 50 A\nVersion: 3\n…
## # ℹ 190 more rows
…
mut_dat <- slim_extract_full(output_test$output_data[nrow(output_test$output_data), ],
                                   "mutations")
mut_dat

## # A tibble: 72 × 11
##    generation mut_id unique_mut_id mut_type chrome_pos selection dominance
##         <int>  <int>         <int> <chr>         <int>     <dbl>     <dbl>
##  1       1000     32          1059 m1            51819         0       0.5
##  2       1000      2          1625 m1            38952         0       0.5
##  3       1000      7          1785 m1            70816         0       0.5
##  4       1000     34          1792 m1            65569         0       0.5
##  5       1000     33          1974 m1            55913         0       0.5
##  6       1000      1          1994 m1            38596         0       0.5
##  7       1000     27          2163 m1            11533         0       0.5
##  8       1000      3          2301 m1            58311         0       0.5
##  9       1000     35          2947 m1            71275         0       0.5
## 10       1000     31          2990 m1            46828         0       0.5
## # ℹ 62 more rows
## # ℹ 4 more variables: subpop <chr>, first_gen <int>, prevalence <int>,
## #   nucleotide <chr>
…
