Using slimr to investigate the population genetics of the Sandy Inland Mouse in the periodic rainfall environment of the Simpson Desert • slimr
…
abund_summ <- read_csv(system.file("extdata/hermannsburg_abund.csv", package = "slimr"))

abund_summ

## # A tibble: 408 × 3
##    date       pop    abund
##    <date>     <chr>  <dbl>
##  1 1990-03-01 MC     0.525
##  2 1990-06-01 MC     0.926
##  3 1990-08-01 MC     0.794
##  4 1990-09-01 MC     3.24 
##  5 1991-04-01 MC     4.17 
##  6 1991-05-01 MC     3.11 
##  7 1991-07-01 MC    15.4  
##  8 1991-08-01 MC     8.73 
##  9 1991-10-01 MC     2.28 
## 10 1991-11-01 MC     6.94 
## # ℹ 398 more rows
…
gen_meta <- gen@other$ind.metrics

gen_meta <- gen_meta %>%
  as_tibble() %>%
  ## fix some minor errors in genetic metadata with respect to site names:
  mutate(pop = case_when(pop == "FR" ~ substr(as.character(SiteGrid), 1, 3),
                         pop == "KS" ~ "KSE",
                         TRUE ~ as.character(pop))) %>%
  left_join(sites)

## Joining with `by = join_by(pop)`

gen_meta

## # A tibble: 167 × 18
##    id         pop     id2 Date     year month timem Species SiteGrid Trap  Sex  
##    <chr>      <chr> <int> <fct>   <int> <int> <int> <fct>   <fct>    <fct> <fct>
##  1 P_herm_121 KSE     121 16/05/…  2006     5     1 Pseudo… KSEAS    AS.32 "F"  
##  2 P_herm_193 FRN     193 17/09/…  2007     9    17 Pseudo… FRN1     1.09  "F"  
##  3 P_herm_201 KSE     201 13/09/…  2007     9    17 Pseudo… KSE1     1.28  "F"  
##  4 P_herm_129 SS      129 26/05/…  2006     5     1 Pseudo… SS3      3.02  "M"  
##  5 P_herm_137 FRS     137 22/05/…  2006     5     1 Pseudo… FRSU     U.30  "M"  
##  6 P_herm_145 FRS     145 23/05/…  2006     5     1 Pseudo… FRSU     U.27  "M"  
##  7 P_herm_153 MC      153 28/05/…  2006     5     1 Pseudo… MC2      2.31  "M"  
##  8 P_herm_161 CS      161 20/09/…  2007     9    17 Pseudo… CS2G     2G.01 ""   
##  9 P_herm_169 CS      169 20/09/…  2007     9    17 Pseudo… CSMTG    MTG.… ""   
## 10 P_herm_177 CS      177 21/09/…  2007     9    17 Pseudo… CS2      2.03  ""   
## # ℹ 157 more rows
## # ℹ 7 more variables: id_site <fct>, comments <fct>, X <lgl>, lat <dbl>,
## #   lon <dbl>, datum <fct>, SiteName <chr>
…
fst_res <- slim_run(fst_script, throw_error = TRUE)

## 
## 
## Simulation finished with exit status: 0
## 
## Success!

So now we can have a look at how the Fst data was returned, which is
the default way slimr returns data that is a vector:

fst_res$output_data

## # A tibble: 1,000 × 5
##    generation name  expression                                       type  data 
##         <int> <chr> <chr>                                            <chr> <chr>
##  1          1 fsts  c(calculateFST(p1, p2), calculateFST(p1, p3), c… "flo… 0.04…
##  2          2 fsts  c(calculateFST(p1, p2), calculateFST(p1, p3), c… "flo… 0.04…
##  3          3 fsts  c(calculateFST(p1, p2), calculateFST(p1, p3), c… "flo… 0.05…
##  4          4 fsts  c(calculateFST(p1, p2), calculateFST(p1, p3), c… "flo… 0.05…
##  5          5 fsts  c(calculateFST(p1, p2), calculateFST(p1, p3), c… "flo… 0.06…
##  6          6 fsts  c(calculateFST(p1, p2), calculateFST(p1, p3), c… "flo… 0.09…
##  7          7 fsts  c(calculateFST(p1, p2), calculateFST(p1, p3), c… "flo… 0.10…
##  8          8 fsts  c(calculateFST(p1, p2), calculateFST(p1, p3), c… "flo… 0.11…
##  9          9 fsts  c(calculateFST(p1, p2), calculateFST(p1, p3), c… "flo… 0.11…
## 10         10 fsts  c(calculateFST(p1, p2), calculateFST(p1, p3), c… "flo… 0.11…
## # ℹ 990 more rows
…
slim_subpops <- slim_subpops %>%
  unnest_longer(col = data, values_to = "subpop", indices_to = "genome_num") %>%
  mutate(individual_num = c(rep(1:sum(samp_sizes[ , 1]), each = 2),
                            rep(1:sum(samp_sizes[ , 2]), each = 2),
                            rep(1:sum(samp_sizes[ , 3]), each = 2)) %>%
           rep(6))

slim_subpops

## # A tibble: 1,776 × 7
##    type             expression generation name  subpop genome_num individual_num
##    <chr>            <chr>           <int> <chr> <chr>       <int>          <int>
##  1 "object<Subpopu… ind_sampl…        740 subp… Subpo…          1              1
##  2 "object<Subpopu… ind_sampl…        740 subp… Subpo…          2              1
##  3 "object<Subpopu… ind_sampl…        740 subp… Subpo…          3              2
##  4 "object<Subpopu… ind_sampl…        740 subp… Subpo…          4              2
##  5 "object<Subpopu… ind_sampl…        740 subp… Subpo…          5              3
##  6 "object<Subpopu… ind_sampl…        740 subp… Subpo…          6              3
##  7 "object<Subpopu… ind_sampl…        740 subp… Subpo…          7              4
##  8 "object<Subpopu… ind_sampl…        740 subp… Subpo…          8              4
##  9 "object<Subpopu… ind_sampl…        740 subp… Subpo…          9              5
## 10 "object<Subpopu… ind_sampl…        740 subp… Subpo…         10              5
## # ℹ 1,766 more rows

slim_subpops <- slim_subpops %>%
  group_by(generation, individual_num) %>%
  summarise(subpop = subpop[1],
            .groups = "drop")

slim_subpops

## # A tibble: 888 × 3
##    generation individual_num subpop           
##         <int>          <int> <chr>            
##  1        740              1 Subpopulation<p1>
##  2        740              2 Subpopulation<p1>
##  3        740              3 Subpopulation<p1>
##  4        740              4 Subpopulation<p1>
##  5        740              5 Subpopulation<p1>
##  6        740              6 Subpopulation<p1>
##  7        740              7 Subpopulation<p1>
##  8        740              8 Subpopulation<p1>
##  9        740              9 Subpopulation<p1>
## 10        740             10 Subpopulation<p1>
## # ℹ 878 more rows
…
