Simple Example of a Simulation using Nucleotides • slimr
…
)

results <- slim_run(split_isolate_sim, throw_error = TRUE)

## 
## 
## Simulation finished with exit status: 0
## 
## Success!

res_data <- slim_results_to_data(results)

res_data

## # A tibble: 100 × 6
##    type             expression               generation name  data       subpops
##    <chr>            <chr>                         <int> <chr> <list>     <list> 
##  1 slim_nucleotides slimr_output_nucleotide…        100 seqs  <DNAStrnS> <chr>  
##  2 slim_nucleotides slimr_output_nucleotide…        200 seqs  <DNAStrnS> <chr>  
##  3 slim_nucleotides slimr_output_nucleotide…        300 seqs  <DNAStrnS> <chr>  
##  4 slim_nucleotides slimr_output_nucleotide…        400 seqs  <DNAStrnS> <chr>  
##  5 slim_nucleotides slimr_output_nucleotide…        500 seqs  <DNAStrnS> <chr>  
##  6 slim_nucleotides slimr_output_nucleotide…        600 seqs  <DNAStrnS> <chr>  
##  7 slim_nucleotides slimr_output_nucleotide…        700 seqs  <DNAStrnS> <chr>  
##  8 slim_nucleotides slimr_output_nucleotide…        800 seqs  <DNAStrnS> <chr>  
##  9 slim_nucleotides slimr_output_nucleotide…        900 seqs  <DNAStrnS> <chr>  
## 10 slim_nucleotides slimr_output_nucleotide…       1000 seqs  <DNAStrnS> <chr>  
## # ℹ 90 more rows
…
